…
Reading and Writing Data: Exercises
-----------------------------------

Make a tibble of letters, their order in the alphabet, and then a pasting of the two columns together.

``` r
# the `paste` function leaves a space, while the `space0` function leaves no space. Adding a `sep =` the separator can be anything, specified in "" marks.
tibble(let = letters,
       num = 1:length(letters),
       comb = paste(let, num))
```

    ## # A tibble: 26 x 3
    ##    let     num comb 
    ##    <chr> <int> <chr>
    ##  1 a         1 a 1  
    ##  2 b         2 b 2  
    ##  3 c         3 c 3  
    ##  4 d         4 d 4  
    ##  5 e         5 e 5  
    ##  6 f         6 f 6  
    ##  7 g         7 g 7  
    ##  8 h         8 h 8  
    ##  9 i         9 i 9  
    ## 10 j        10 j 10 
    ## # ... with 16 more rows
…
``` r
read_delim("iris.txt", delim = "$")
```

    ## Parsed with column specification:
    ## cols(
    ##   Sepal.Length = col_double(),
    ##   Sepal.Width = col_double(),
    ##   Petal.Length = col_double(),
    ##   Petal.Width = col_double(),
    ##   Species = col_character()
    ## )

    ## # A tibble: 150 x 5
    ##    Sepal.Length Sepal.Width Petal.Length Petal.Width Species
    ##           <dbl>       <dbl>        <dbl>       <dbl> <chr>  
    ##  1          5.1         3.5          1.4         0.2 setosa 
    ##  2          4.9         3            1.4         0.2 setosa 
    ##  3          4.7         3.2          1.3         0.2 setosa 
    ##  4          4.6         3.1          1.5         0.2 setosa 
    ##  5          5           3.6          1.4         0.2 setosa 
    ##  6          5.4         3.9          1.7         0.4 setosa 
    ##  7          4.6         3.4          1.4         0.3 setosa 
    ##  8          5           3.4          1.5         0.2 setosa 
    ##  9          4.4         2.9          1.4         0.2 setosa 
    ## 10          4.9         3.1          1.5         0.1 setosa 
    ## # ... with 140 more rows
…
